{
  "status": 200,
  "totalRows": 35,
  "limit": 10,
  "page": 1,
  "totalPage": 4,
  "data": [
    {
      "sold": 0,
      "stok": 78,
      "images": [
        "http://res.cloudinary.com/dd91ahhsh/image/upload/v1563123840/tcxlhd8egxqq3kouvabi.jpg"
      ],
      "favorites": 0,
      "_id": "5d2b60809b7ee40017adfc51",
      "name": "Cangkir",
      "price": 47000,
      "thumbnail": "http://res.cloudinary.com/dd91ahhsh/image/upload/v1563123840/tcxlhd8egxqq3kouvabi.jpg",
      "category": {
        "_id": "5d29a6dcf8767e001745aa0f",
        "name": "Perabotan Rumah"
      },
      "city": "Yogyakarta",
      "description": "BNN",
      "brand": "Malioboro",
      "seller": {
        "address": {
          "province": "DI Yogyakarta",
          "city": "Sleman",
          "district": "Mlati",
          "full_addrees": "Pugong Baru",
          "zip_code": 56783
        },
        "_id": "5d2b4ce09b7ee40017adfc40",
        "user": {
          "_id": "5d2b4ce09b7ee40017adfc3f",
          "username": "demoapp",
          "phone": 81322224444
        },
        "name": "Shovee Clone",
        "image_profil": "http://res.cloudinary.com/dd91ahhsh/image/upload/v1563119410/d0naoc7ab4wjxbj5quxe.jpg"
      },
      "createdAt": "2019-07-14T17:04:00.396Z",
      "updatedAt": "2019-07-14T17:04:00.396Z",
      "__v": 0
    },
    {
      "sold": 0,
      "stok": 60,
      "images": [
        "http://res.cloudinary.com/dd91ahhsh/image/upload/v1563121555/gxapbeaaxkxs68xhhzo1.jpg"
      ],
      "favorites": 0,
      "_id": "5d2b57939b7ee40017adfc4c",
      "name": "Doll",
      "price": 150000,
      "thumbnail": "http://res.cloudinary.com/dd91ahhsh/image/upload/v1563121555/gxapbeaaxkxs68xhhzo1.jpg",
      "category": {
        "_id": "5d2890967cbd800017da6f0f",
        "name": "Hobi & Koleksi"
      },
      "city": "Yogyakarta",
      "description": "Boneka Beruang",
      "brand": "Doll",
      "seller": {
        "address": {
          "province": "DI Yogyakarta",
          "city": "Sleman",
          "district": "Mlati",
          "full_addrees": "Pugong Baru",
          "zip_code": 56783
        },
        "_id": "5d2b4ce09b7ee40017adfc40",
        "user": {
          "_id": "5d2b4ce09b7ee40017adfc3f",
          "username": "demoapp",
          "phone": 81322224444
        },
        "name": "Shovee Clone",
        "image_profil": "http://res.cloudinary.com/dd91ahhsh/image/upload/v1563119410/d0naoc7ab4wjxbj5quxe.jpg"
      },
      "createdAt": "2019-07-14T16:25:55.999Z",
      "updatedAt": "2019-07-14T16:25:55.999Z",
      "__v": 0
    },
    {
      "sold": 0,
      "stok": 100,
      "images": [
        "http://res.cloudinary.com/dd91ahhsh/image/upload/v1563121167/l8uddmyw9kvauziddcdb.jpg"
      ],
      "favorites": 0,
      "_id": "5d2b560f9b7ee40017adfc47",
      "name": "11:11",
      "price": 99000,
      "thumbnail": "http://res.cloudinary.com/dd91ahhsh/image/upload/v1563121167/l8uddmyw9kvauziddcdb.jpg",
      "category": {
        "_id": "5d2890967cbd800017da6f0f",
        "name": "Hobi & Koleksi"
      },
      "city": "Yogyakarta",
      "description": "Album Buku Fiersa Besari ",
      "brand": "mediakita",
      "seller": {
        "address": {
          "province": "DI Yogyakarta",
          "city": "Sleman",
          "district": "Mlati",
          "full_addrees": "Pugong Baru",
          "zip_code": 56783
        },
        "_id": "5d2b4ce09b7ee40017adfc40",
        "user": {
          "_id": "5d2b4ce09b7ee40017adfc3f",
          "username": "demoapp",
          "phone": 81322224444
        },
        "name": "Shovee Clone",
        "image_profil": "http://res.cloudinary.com/dd91ahhsh/image/upload/v1563119410/d0naoc7ab4wjxbj5quxe.jpg"
      },
      "createdAt": "2019-07-14T16:19:27.607Z",
      "updatedAt": "2019-07-14T16:19:27.607Z",
      "__v": 0
    },
    {
      "sold": 0,
      "stok": 5,
      "images": [
        "http://res.cloudinary.com/dd91ahhsh/image/upload/v1563120614/jwnonx9cy6yvf7cmof81.jpg"
      ],
      "favorites": 0,
      "_id": "5d2b53e79b7ee40017adfc46",
      "name": "Kodok",
      "price": 25000,
      "thumbnail": "http://res.cloudinary.com/dd91ahhsh/image/upload/v1563120614/jwnonx9cy6yvf7cmof81.jpg",
      "category": {
        "_id": "5d2890967cbd800017da6f0f",
        "name": "Hobi & Koleksi"
      },
      "city": "Yogyakarta",
      "description": "Frog",
      "brand": "FrogRacer",
      "seller": {
        "address": {
          "province": "DI Yogyakarta",
          "city": "Sleman",
          "district": "Mlati",
          "full_addrees": "Pugong Baru",
          "zip_code": 56783
        },
        "_id": "5d2b4ce09b7ee40017adfc40",
        "user": {
          "_id": "5d2b4ce09b7ee40017adfc3f",
          "username": "demoapp",
          "phone": 81322224444
        },
        "name": "Shovee Clone",
        "image_profil": "http://res.cloudinary.com/dd91ahhsh/image/upload/v1563119410/d0naoc7ab4wjxbj5quxe.jpg"
      },
      "createdAt": "2019-07-14T16:10:15.092Z",
      "updatedAt": "2019-07-14T16:10:15.092Z",
      "__v": 0
    },
    {
      "sold": 0,
      "stok": 2,
      "images": [
        "http://res.cloudinary.com/dd91ahhsh/image/upload/v1563120278/n6edaiks18env9lzygqp.jpg"
      ],
      "favorites": 0,
      "_id": "5d2b52969b7ee40017adfc45",
      "name": "ASUS X453M",
      "price": 1500000,
      "thumbnail": "http://res.cloudinary.com/dd91ahhsh/image/upload/v1563120278/n6edaiks18env9lzygqp.jpg",
      "category": {
        "_id": "5d29a6baf8767e001745aa0c",
        "name": "Komputer"
      },
      "city": "Yogyakarta",
      "description": "Laptop",
      "brand": "ASUS",
      "seller": {
        "address": {
          "province": "DI Yogyakarta",
          "city": "Sleman",
          "district": "Mlati",
          "full_addrees": "Pugong Baru",
          "zip_code": 56783
        },
        "_id": "5d2b4ce09b7ee40017adfc40",
        "user": {
          "_id": "5d2b4ce09b7ee40017adfc3f",
          "username": "demoapp",
          "phone": 81322224444
        },
        "name": "Shovee Clone",
        "image_profil": "http://res.cloudinary.com/dd91ahhsh/image/upload/v1563119410/d0naoc7ab4wjxbj5quxe.jpg"
      },
      "createdAt": "2019-07-14T16:04:38.438Z",
      "updatedAt": "2019-07-14T16:04:38.438Z",
      "__v": 0
    },
    {
      "sold": 0,
      "stok": 2,
      "images": [
        "http://res.cloudinary.com/dd91ahhsh/image/upload/v1563120190/ked6vhofx0kle7kwkzbq.jpg"
      ],
      "favorites": 0,
      "_id": "5d2b523e9b7ee40017adfc44",
      "name": "ASUS X453M",
      "price": 1500000,
      "thumbnail": "http://res.cloudinary.com/dd91ahhsh/image/upload/v1563120190/ked6vhofx0kle7kwkzbq.jpg",
      "category": {
        "_id": "5d29a6baf8767e001745aa0c",
        "name": "Komputer"
      },
      "city": "Yogyakarta",
      "description": "Laptop",
      "brand": "ASUS",
      "seller": {
        "address": {
          "province": "DI Yogyakarta",
          "city": "Sleman",
          "district": "Mlati",
          "full_addrees": "Pugong Baru",
          "zip_code": 56783
        },
        "_id": "5d2b4ce09b7ee40017adfc40",
        "user": {
          "_id": "5d2b4ce09b7ee40017adfc3f",
          "username": "demoapp",
          "phone": 81322224444
        },
        "name": "Shovee Clone",
        "image_profil": "http://res.cloudinary.com/dd91ahhsh/image/upload/v1563119410/d0naoc7ab4wjxbj5quxe.jpg"
      },
      "createdAt": "2019-07-14T16:03:10.971Z",
      "updatedAt": "2019-07-14T16:03:10.971Z",
      "__v": 0
    },
    {
      "sold": 0,
      "stok": 1,
      "images": [
        "http://res.cloudinary.com/dd91ahhsh/image/upload/v1563120017/hyafyqwjz8qxnvaaiyse.jpg"
      ],
      "favorites": 0,
      "_id": "5d2b51929b7ee40017adfc43",
      "name": "Coffee",
      "price": 22000,
      "thumbnail": "http://res.cloudinary.com/dd91ahhsh/image/upload/v1563120017/hyafyqwjz8qxnvaaiyse.jpg",
      "category": {
        "_id": "5d29a725f8767e001745aa13",
        "name": "Mermaid Family"
      },
      "city": "Yogyakarta",
      "description": "Kopi",
      "brand": "Sebelas",
      "seller": {
        "address": {
          "province": "DI Yogyakarta",
          "city": "Sleman",
          "district": "Mlati",
          "full_addrees": "Pugong Baru",
          "zip_code": 56783
        },
        "_id": "5d2b4ce09b7ee40017adfc40",
        "user": {
          "_id": "5d2b4ce09b7ee40017adfc3f",
          "username": "demoapp",
          "phone": 81322224444
        },
        "name": "Shovee Clone",
        "image_profil": "http://res.cloudinary.com/dd91ahhsh/image/upload/v1563119410/d0naoc7ab4wjxbj5quxe.jpg"
      },
      "createdAt": "2019-07-14T16:00:18.388Z",
      "updatedAt": "2019-07-14T16:00:18.388Z",
      "__v": 0
    },
    {
      "sold": 0,
      "stok": 1,
      "images": [
        "http://res.cloudinary.com/dd91ahhsh/image/upload/v1563014183/zns36pnof0j1oszv1yei.jpg"
      ],
      "favorites": 0,
      "_id": "5d29b427f8767e001745aa27",
      "name": "Ini kopi",
      "price": 100000,
      "thumbnail": "http://res.cloudinary.com/dd91ahhsh/image/upload/v1563014183/zns36pnof0j1oszv1yei.jpg",
      "category": {
        "_id": "5d29a725f8767e001745aa13",
        "name": "Mermaid Family"
      },
      "city": "Yogyakarta",
      "description": "Kopi",
      "brand": "Kopi mermaid",
      "seller": {
        "address": {
          "province": "Vvg",
          "city": "Bbb",
          "district": "Bbb",
          "full_addrees": "Bbbba",
          "zip_code": "Gghh"
        },
        "_id": "5d29b375f8767e001745aa26",
        "user": {
          "_id": "5d29b375f8767e001745aa25",
          "username": "Rutaf",
          "phone": 8999545261
        },
        "name": "Vgg",
        "image_profil": "https://cdn.pixabay.com/photo/2015/10/05/22/37/blank-profile-picture-973460_960_720.png"
      },
      "createdAt": "2019-07-13T10:36:23.813Z",
      "updatedAt": "2019-07-13T10:36:23.813Z",
      "__v": 0
    },
    {
      "sold": 0,
      "stok": 10,
      "images": [
        "http://res.cloudinary.com/dd91ahhsh/image/upload/v1563013563/fk5lutt8cp8hlyav8eoe.jpg"
      ],
      "favorites": 0,
      "_id": "5d29b1bbf8767e001745aa23",
      "name": "Animation",
      "price": 10000,
      "thumbnail": "http://res.cloudinary.com/dd91ahhsh/image/upload/v1563013563/fk5lutt8cp8hlyav8eoe.jpg",
      "category": {
        "_id": "5d2890967cbd800017da6f0f",
        "name": "Hobi & Koleksi"
      },
      "city": "Yogyakarta",
      "description": "Animation",
      "brand": "Animation",
      "seller": {
        "address": {
          "province": "Jawa Barat",
          "city": "Bandung",
          "district": "Cangkuang",
          "full_addrees": "Jl. Jalan",
          "zip_code": 473926
        },
        "_id": "5d29b04ff8767e001745aa1a",
        "user": {
          "_id": "5d29b04ff8767e001745aa19",
          "username": "shovee",
          "phone": 8132266556
        },
        "name": "M Faisal Akbar",
        "image_profil": "http://res.cloudinary.com/dd91ahhsh/image/upload/v1563013414/k8jocea0hdfxf9rfgfsn.jpg"
      },
      "createdAt": "2019-07-13T10:26:03.431Z",
      "updatedAt": "2019-07-13T10:26:03.431Z",
      "__v": 0
    },
    {
      "sold": 0,
      "stok": 12,
      "images": [
        "http://res.cloudinary.com/dd91ahhsh/image/upload/v1563011368/fu09esnig7y0yt8zh0uy.jpg"
      ],
      "favorites": 0,
      "_id": "5d29a928f8767e001745aa17",
      "name": "Stun Gun",
      "price": 320000,
      "thumbnail": "http://res.cloudinary.com/dd91ahhsh/image/upload/v1563011368/fu09esnig7y0yt8zh0uy.jpg",
      "category": {
        "_id": "5d29a644f8767e001745aa08",
        "name": "Elektronik"
      },
      "city": "Yogyakarta",
      "description": "For your protection",
      "brand": "MaxIO",
      "seller": {
        "address": {
          "province": "",
          "city": "",
          "district": "",
          "full_addrees": "",
          "zip_code": ""
        },
        "_id": "5d28c6fa03d0740017207f60",
        "user": {
          "_id": "5d28c6fa03d0740017207f5f",
          "username": "marvinsod",
          "phone": 618362829193
        },
        "name": "",
        "image_profil": "http://res.cloudinary.com/dd91ahhsh/image/upload/v1562998494/nmujfwcmipugu92yfxst.png"
      },
      "createdAt": "2019-07-13T09:49:28.297Z",
      "updatedAt": "2019-07-13T09:49:28.297Z",
      "__v": 0
    }
  ]
}